<svg width="15" height="15" viewBox="0 0 15 15" fill="none" xmlns="http://www.w3.org/2000/svg">
<path d="M14.2777 0.800222L1.16529 6.81796C1.01899 6.88542 0.933558 7.03979 0.954825 7.19966C0.976092 7.35952 1.09893 7.48639 1.25769 7.51279L7.06313 8.48556L7.72643 13.9672C7.74623 14.1278 7.86906 14.2573 8.02856 14.2844C8.04946 14.2881 8.06999 14.2899 8.09053 14.2899C8.22803 14.2899 8.35673 14.2125 8.41906 14.086L14.7591 1.29596C14.828 1.15662 14.802 0.989055 14.6938 0.877589C14.5857 0.766122 14.4177 0.735322 14.2777 0.800222ZM8.30686 12.6608L7.75833 8.12549C7.73853 7.96416 7.61496 7.83472 7.45473 7.80796L2.55533 6.98699L13.6419 1.89876L8.30686 12.6608Z" fill="black"/>
</svg>
