{
  "result": {
    "status": true
  },
  "data": [
    {
      "id": 1,
      "name": "Новосибирск",
      "slug": "nsk",
      "shop": 1,
      "shops": [
         {
           "id": 1,
           "name": "Склад Евросиб",
           "address": "г. Новосибирск, ул. Королева, д. 40, корп. 40",
           "geoData": {
             "lat": 54.89,
             "lng": 82.96
           },
           "phones": [
             89130197710,
             89130197711
           ],
           "image": "https://nsk.rf-54.ru/upload/resize_cache/catalog/ddb/179_119_2/nsk1_15.09.2019.jpg",
           "workTime": " "
         },
         {
           "id": 14,
           "name": "Магазин НСК 1 (склад)",
           "address": "г. Новосибирск, ул. Петухова, д. 69, корп. 1",
           "geoData": {
             "lat": 54.81,
             "lng": 82.80
           },
           "phones": [
             89130197710,
             89130197712
           ],
           "image": "https://nsk.rf-54.ru/upload/resize_cache/catalog/ddb/179_119_2/nsk1_15.09.2019.jpg",
           "workTime": " "
         },
         {
           "id": 15,
           "name": "Магазин НСК 2 (склад)",
           "address": "г. Новосибирск, 1-е Мочищенское шоссе, д. 4",
           "geoData": {
             "lat": 54.81,
             "lng": 82.88
           },
           "phones": [
             89130197710
           ],
           "image": "https://nsk.rf-54.ru/upload/resize_cache/catalog/ddb/179_119_2/nsk1_15.09.2019.jpg",
           "workTime": " "
         }
      ]
    },
    {
      "id": 3,
      "name": "Москва",
      "slug": "msk",
      "shop": 2,
      "shops": [
         {
           "id": 2,
           "name": "Магазин 1 (склад)",
           "address": "",
           "geoData": {
             "lat": null,
             "lng": null
           },
           "phones": [
             89130197714
           ],
           "image": "https://nsk.rf-54.ru/upload/resize_cache/catalog/ddb/179_119_2/nsk1_15.09.2019.jpg",
           "workTime": " "
         },
         {
           "id": 3,
           "name": "Магазин 2 (склад)",
           "address": "г. Новосибирск, ул. asd, д. asd",
           "geoData": {
             "lat": 54.81,
             "lng": 82.80
           },
           "phones": [
             89130197710
           ],
           "image": "https://nsk.rf-54.ru/upload/resize_cache/catalog/ddb/179_119_2/nsk1_15.09.2019.jpg",
           "workTime": " "
         }
      ]
    },
    {
      "id": 8,
      "name": "Красноярск",
      "slug": "cr",
      "shop": 4,
      "shops": [
         {
           "id": 4,
           "name": "Магазин 2 (склад)",
           "address": "г. Новосибирск, ул. asd, д. asd",
           "geoData": {
             "lat": 54.81,
             "lng": 82.80
           },
           "phones": [
             89130197710
           ],
           "image": "https://nsk.rf-54.ru/upload/resize_cache/catalog/ddb/179_119_2/nsk1_15.09.2019.jpg",
           "workTime": " "
         }
      ]
    },
    {
      "id": 18,
      "name": "Казань",
      "slug": "casan",
      "shop": 5,
      "shops": [
         {
           "id": 5,
           "name": "Магазин 2 (склад)",
           "address": "г. Новосибирск, ул. asd, д. asd",
           "geoData": {
             "lat": 54.81,
             "lng": 82.80
           },
           "phones": [
             89110197710
           ],
           "image": "https://nsk.rf-54.ru/upload/resize_cache/catalog/ddb/179_119_2/nsk1_15.09.2019.jpg",
           "workTime": " "
         }
      ]
    },
    {
      "id": 221,
      "name": "Алматы",
      "slug": "almaty",
      "shop": null,
      "shops": []
    },
    {
      "id": 222,
      "name": "Барнаул",
      "slug": "barnaul",
      "shop": null,
      "shops": []
    },
    {
      "id": 32,
      "name": "Владивосток",
      "slug": "vladivostok",
      "shop": null,
      "shops": []
    },
    {
      "id": 111,
      "name": "Екатеринбург",
      "slug": "ekat",
      "shop": null,
      "shops": []
    },
    {
      "id": 9,
      "name": "Ижевск",
      "slug": "igevsk",
      "shop": null,
      "shops": []
    },
    {
      "id": 99,
      "name": "Иркутск",
      "slug": "irkutsk",
      "shop": null,
      "shops": []
    },
    {
      "id": 88,
      "name": "Тюмень",
      "slug": "tumen",
      "shop": null,
      "shops": []
    },
    {
      "id": 87,
      "name": "Уфа",
      "slug": "ufa",
      "shop": null,
      "shops": []
    },
    {
      "id": 89,
      "name": "Ачинск",
      "slug": "achinsk",
      "shop": 3,
      "shops": [
        {
          "id": 1,
          "name": "Склад Евросиб",
          "address": "г. Новосибирск, ул. Королева, д. 40, корп. 40",
          "geoData": {
            "lat": 54.89,
            "lng": 82.96
          }}
      ]
    }

  ]
}
