<svg width="40" height="27" viewBox="0 0 40 27" fill="none" xmlns="http://www.w3.org/2000/svg">
<path fill-rule="evenodd" clip-rule="evenodd" d="M6.80032 0.800049H13.7003C17.3003 0.800049 20.9003 3.40005 20.4003 8.10005C20.1003 12 16.9003 14.8 13.1003 15.4C14.8003 15.5 18.7003 15.9001 19.1003 24.1001C19.1003 25.6001 18.0003 26.4 16.9003 26.3H13.4003C12.0003 26.4 11.7003 25.1 11.6003 24.4C11.4003 22.3 10.3003 21.3 9.00032 21.1001L8.60032 24.2001C8.40032 25.3 7.80032 26.4 6.10032 26.3H3.10032C1.50032 26.4 0.70032 25.2001 0.90032 24.2001L1.60032 19.3L3.60032 3.80005C3.70032 1.70005 5.30032 0.800049 6.80032 0.800049ZM10.1003 10.5L10.7003 6.00005C13.2003 6.10005 12.7003 9.20005 10.1003 10.5ZM27.4001 0.800049H37.2001C39.4001 0.800049 39.9001 1.90005 39.6001 3.10005L39.2001 5.60005C39.0001 7.40005 37.3001 7.70005 36.4001 7.70005H31.5001L30.9001 12.7H36.5001C37.9001 12.8 38.3001 13.5 38.2001 14.3L38.0001 16.1C37.8001 17.6 36.5001 17.9 35.9001 17.9H30.3001L29.5001 23.7001C29.4975 23.7267 29.4948 23.7538 29.4921 23.7812C29.3934 24.7842 29.2442 26.3 27.2001 26.3H23.8001C22.9001 26.3 21.6001 25.7001 21.8001 23.7001L24.5001 3.20005C24.7001 1.50005 25.9001 0.800049 27.4001 0.800049Z" fill="#ED1C24"/>
</svg>
